[
  {
    "id": "ced3f89e313d4bbea1821a9942196d0d",
    "app_id": "app_common666666",
    "sub_app_id": null,
    "code": "a",
    "value": "b",
    "language": "enUS",
    "module": "hae.manager.catalog",
    "memo": null,
    "extend": null,
    "created_by": "uuid~eldYMjc2MDg0",
    "created_date": "2016-03-01 09:59:50.000000",
    "last_updated_by": "uuid~eldYMjc2MDg0",
    "last_updated_date": "2016-03-01 09:59:50.000000",
    "modification_num": 1,
    "type": "2",
    "hw_hae_paging": {
      "startIndex": 1,
      "totalRows": 652,
      "curPage": 1,
      "pageSize": 15,
      "endIndex": 15,
      "totalPages": 44
    }
  },
  {
    "id": "70cdecbd47714568812433ac99895c9e",
    "app_id": "app_common666666",
    "sub_app_id": null,
    "code": "a",
    "value": "a",
    "language": "zhCN",
    "module": "hae.manager.catalog",
    "memo": null,
    "extend": null,
    "created_by": "uuid~eldYMjc2MDg0",
    "created_date": "2016-03-01 09:59:50.000000",
    "last_updated_by": "uuid~eldYMjc2MDg0",
    "last_updated_date": "2016-03-01 09:59:50.000000",
    "modification_num": 1,
    "type": "2"
  },
  {
    "id": "830cbe73d92f41fdaf11647fd70c7313",
    "app_id": "app_common666666",
    "sub_app_id": null,
    "code": "hae.developer.Guideline.Environment",
    "value": "环境及运维手册",
    "language": "zhCN",
    "module": "hae.manager.catalog",
    "memo": null,
    "extend": null,
    "created_by": "uuid~dGVzdDE=",
    "created_date": "2015-05-28 09:41:51.000000",
    "last_updated_by": "uuid~dzAwMTk2MTgx",
    "last_updated_date": "2015-09-01 10:55:50.000000",
    "modification_num": 2,
    "type": "2"
  },
  {
    "id": "2c3d8b59b68948caa637fa857cfe2a17",
    "app_id": "app_common666666",
    "sub_app_id": null,
    "code": "hae.developer.Guideline.FrontWebDocuments",
    "value": "Web Development Docs",
    "language": "enUS",
    "module": "hae.manager.catalog",
    "memo": null,
    "extend": null,
    "created_by": "uuid~dGVzdDE=",
    "created_date": "2015-05-28 09:40:02.000000",
    "last_updated_by": "uuid~dzAwMTk2MTgx",
    "last_updated_date": "2015-09-01 10:55:50.000000",
    "modification_num": 3,
    "type": "2"
  },
  {
    "id": "b1143eb90e224153b27c60bacf027ea8",
    "app_id": "app_common666666",
    "sub_app_id": null,
    "code": "hae.developer.Guideline.FrontWebDocuments",
    "value": "Web开发手册",
    "language": "zhCN",
    "module": "hae.manager.catalog",
    "memo": null,
    "extend": null,
    "created_by": "uuid~dGVzdDE=",
    "created_date": "2015-05-28 09:40:02.000000",
    "last_updated_by": "uuid~dzAwMTk2MTgx",
    "last_updated_date": "2015-09-01 10:55:50.000000",
    "modification_num": 2,
    "type": "2"
  },
  {
    "id": "1477ebb28ad645d699dac39eae3ff945",
    "app_id": "app_common666666",
    "sub_app_id": null,
    "code": "hae.developer.Guideline.WebDoc",
    "value": "Web Document",
    "language": "enUS",
    "module": "hae.saas.i18n",
    "memo": null,
    "extend": null,
    "created_by": "uuid~eFdYMjMzODM5",
    "created_date": "2015-04-10 10:16:29.000000",
    "last_updated_by": "uuid~dzAwMTk2MTgx",
    "last_updated_date": "2015-09-01 10:55:49.000000",
    "modification_num": 1,
    "type": "1"
  },
  {
    "id": "721f546b95ac484e9711033cb0613747",
    "app_id": "app_common666666",
    "sub_app_id": null,
    "code": "hae.developer.Guideline.WebDoc",
    "value": "前端WEB文档",
    "language": "zhCN",
    "module": "hae.saas.i18n",
    "memo": null,
    "extend": null,
    "created_by": "uuid~eFdYMjMzODM5",
    "created_date": "2015-04-10 10:16:29.000000",
    "last_updated_by": "uuid~dzAwMTk2MTgx",
    "last_updated_date": "2015-09-01 10:55:49.000000",
    "modification_num": 1,
    "type": "1"
  },
  {
    "id": "af6c514babec4b33b980b026a516e217",
    "app_id": "app_common666666",
    "sub_app_id": null,
    "code": "hae.developer.Guideline.webDoc",
    "value": "WEB Document",
    "language": "enUS",
    "module": "hae.saas.i18n",
    "memo": null,
    "extend": null,
    "created_by": "uuid~eFdYMjMzODM5",
    "created_date": "2015-04-10 10:09:46.000000",
    "last_updated_by": "uuid~dzAwMTk2MTgx",
    "last_updated_date": "2015-09-01 10:55:49.000000",
    "modification_num": 1,
    "type": "1"
  },
  {
    "id": "e71ada77514d4417b118e4d8fc9ec708",
    "app_id": "app_common666666",
    "sub_app_id": null,
    "code": "hae.developer.Guideline.webDoc",
    "value": "前端WEB文档",
    "language": "zhCN",
    "module": "hae.saas.i18n",
    "memo": null,
    "extend": null,
    "created_by": "uuid~eFdYMjMzODM5",
    "created_date": "2015-04-10 10:09:46.000000",
    "last_updated_by": "uuid~dzAwMTk2MTgx",
    "last_updated_date": "2015-09-01 10:55:49.000000",
    "modification_num": 1,
    "type": "1"
  },
  {
    "id": "cf188cfc93e94d05bbbfc25f4d628550",
    "app_id": "app_common666666",
    "sub_app_id": null,
    "code": "hae.developer.HelpTopic",
    "value": "Help",
    "language": "enUS",
    "module": "hae.saas.i18n",
    "memo": null,
    "extend": null,
    "created_by": "uuid~d1dYMjAzNDY3",
    "created_date": "2015-04-07 15:56:15.000000",
    "last_updated_by": "uuid~dzAwMTk2MTgx",
    "last_updated_date": "2015-09-01 10:55:49.000000",
    "modification_num": 19,
    "type": "1"
  },
  {
    "id": "4472e69546f4489b98772d5f4eaf5abf",
    "app_id": "app_common666666",
    "sub_app_id": null,
    "code": "hae.developer.HelpTopic",
    "value": "帮助",
    "language": "zhCN",
    "module": "hae.saas.i18n",
    "memo": null,
    "extend": null,
    "created_by": "uuid~d1dYMjAzNDY3",
    "created_date": "2015-04-07 15:56:15.000000",
    "last_updated_by": "uuid~dzAwMTk2MTgx",
    "last_updated_date": "2015-09-01 10:55:49.000000",
    "modification_num": 1,
    "type": "1"
  },
  {
    "id": "a5ad6b57e7954fbfb9a19a295d924ce5",
    "app_id": "app_common666666",
    "sub_app_id": null,
    "code": "hae.developer.HelpTopic.ConfigurePlatform",
    "value": "Configuration Platform",
    "language": "enUS",
    "module": "hae.manager.catalog",
    "memo": null,
    "extend": null,
    "created_by": "uuid~dGVzdDE=",
    "created_date": "2015-05-28 10:19:41.000000",
    "last_updated_by": "uuid~dzAwMTk2MTgx",
    "last_updated_date": "2015-09-01 10:55:50.000000",
    "modification_num": 2,
    "type": "2"
  },
  {
    "id": "bfb4547487b24321a6991bc65a8c5d8e",
    "app_id": "app_common666666",
    "sub_app_id": null,
    "code": "hae.developer.HelpTopic.ConfigurePlatform",
    "value": "配置平台",
    "language": "zhCN",
    "module": "hae.manager.catalog",
    "memo": null,
    "extend": null,
    "created_by": "uuid~dGVzdDE=",
    "created_date": "2015-05-28 10:19:41.000000",
    "last_updated_by": "uuid~dzAwMTk2MTgx",
    "last_updated_date": "2015-09-01 10:55:50.000000",
    "modification_num": 1,
    "type": "2"
  },
  {
    "id": "960d6aadbe3b43a8932b5ca95ff18cf8",
    "app_id": "app_common666666",
    "sub_app_id": null,
    "code": "hae.developer.HelpTopic.Expert",
    "value": "Online Expert",
    "language": "enUS",
    "module": "hae.manager.catalog",
    "memo": null,
    "extend": null,
    "created_by": "uuid~eDAwMTkyMDAw",
    "created_date": "2015-06-01 14:33:52.000000",
    "last_updated_by": "uuid~dzAwMTk2MTgx",
    "last_updated_date": "2015-09-01 10:55:49.000000",
    "modification_num": 2,
    "type": "2"
  },
  {
    "id": "d95f2707549e42e6a9cd75de4d429025",
    "app_id": "app_common666666",
    "sub_app_id": null,
    "code": "hae.developer.HelpTopic.Expert",
    "value": "专家在线",
    "language": "zhCN",
    "module": "hae.manager.catalog",
    "memo": null,
    "extend": null,
    "created_by": "uuid~eDAwMTkyMDAw",
    "created_date": "2015-06-01 14:33:52.000000",
    "last_updated_by": "uuid~dzAwMTk2MTgx",
    "last_updated_date": "2015-09-01 10:55:49.000000",
    "modification_num": 1,
    "type": "2"
  }
]
